[
    {
        "id":"1",
        "imageResource":"man_jacket_1_1",
        "shopName":"Zara",
        "shopAddress":"Кутузовский пр-т 32к1",
        "price":15000.00,
        "distance":3
    },
    {
        "id":"2",
        "imageResource":"man_jacket_2_1",
        "shopName":"H&M",
        "shopAddress":"Кутузовский пр-т 32к1",
        "price":12000.00,
        "distance":2
    },
    {
        "id":"3",
        "imageResource":"man_jacket_3_1",
        "shopName":"Topman",
        "shopAddress":"Кутузовский пр-т 32к1",
        "price":11000.00,
        "distance":4
    },
    {
        "id":"3",
        "imageResource":"man_jacket_4_1",
        "shopName":"Dior",
        "shopAddress":"Кутузовский пр-т 32к1",
        "price":10000.00,
        "distance":5
    },
    {
        "id":"3",
        "imageResource":"man_jacket_5_1",
        "shopName":"Dior",
        "shopAddress":"Кутузовский пр-т 32к1",
        "price":10000.00,
        "distance":5
    }
]